#DSID	Sample	Events (mc15)	Events (mc16a)	Events (mc16c)	Events (mc16d)	Events (mc16e)	Sample Lumi (mc15/16a only) [fb-1]  Cross section [pb]  FiltEff  Total higher order xsec [pb]  K-factor  Higher order xsec sample [pb]
302777 	mc15_13TeV.302777.MadGraphPythia8EvtGen_A14NNPDF23_4topCI.evgen.EVNT.e4476     156000.0        0.0  0.0       0.0   0.0     168.41 	  0.9263 	 1.0   Undefined    1.0  0.9263
304014 	mc15_13TeV.304014.MadGraphPythia8EvtGen_A14NNPDF23_3top_SM.evgen.EVNT.e4324    200000.0        200000.0       200000.0 	    200000.0 	  0.0 		 121980.97 	    0.0016396  1.0  Undefined  1.0  0.0016396
343431 	mc15_13TeV.343431.MadGraphPythia8EvtGen_bbA_m500_tanb10.evgen.EVNT.e4776       983000.0        0.0 	      0.0 	    0.0 	  0.0 		 9.99308718282e+11  9.8368e-10 	    1.0        Undefined  1.0  1e-09
343432 	mc15_13TeV.343432.MadGraphPythia8EvtGen_bbA_m1000_tanb10.evgen.EVNT.e4776      496000.0        0.0 	      0.0 	    0.0 	  0.0 		 5210084.03 	    9.52e-05 	    1.0        Undefined  1.0  9.52e-05
343433 	mc15_13TeV.343433.MadGraphPythia8EvtGen_bbH_m500_tanb10.evgen.EVNT.e4776       984000.0        0.0 	      0.0 	    0.0 	  0.0 		 1.06509644318e+12  9.2386e-10 	    1.0        Undefined  1.0  1e-09
343434 	mc15_13TeV.343434.MadGraphPythia8EvtGen_bbH_m1000_tanb10.evgen.EVNT.e4776      493000.0        0.0 	      0.0 	    0.0 	  0.0 		 4915254.24 	    0.0001003 	    1.0        Undefined  1.0  0.0001003
407320 	mc15_13TeV.407320.aMcAtNloPythia8EvtGen_MEN30NLO_A14N23LO_tta140.evgen.EVNT.e5587 	       2941000.0      2996000.0     2986000.0 	  2998000.0 	 0.0 		    13904.49 	    0.21547    1.0 	  Undefined  1.0  0.21547
407321 	mc15_13TeV.407321.MadGraphPythia8EvtGen_A14NNPDF23LO_ttbarWll.evgen.EVNT.e5536 		       30000.0 	      30000.0 	    30000.0 	  30000.0 	 0.0 		    112612.61 	    0.0002664  1.0 	  Undefined  1.0  0.0002664
410066 	mc15_13TeV.410066.MadGraphPythia8EvtGen_A14NNPDF23LO_ttW_Np0.evgen.EVNT.e4111 		       1986400.0      0.0 	    0.0 	  0.0 		 0.0 		    8523.16 	    0.17656    1.0 	  Undefined  1.32  0.2330592
410067 	mc15_13TeV.410067.MadGraphPythia8EvtGen_A14NNPDF23LO_ttW_Np1.evgen.EVNT.e4111 		       1979800.0      0.0 	    0.0 	  0.0 		 0.0 		    10665.97 	    0.14062    1.0 	  Undefined  1.32  0.1856184
410068 	mc15_13TeV.410068.MadGraphPythia8EvtGen_A14NNPDF23LO_ttW_Np2.evgen.EVNT.e4111 		       995200.0       0.0 	    0.0 	  0.0 		 0.0 		    5511.25 	    0.1368     1.0 	  Undefined  1.32  0.180576
410069 	mc15_13TeV.410068.MadGraphPythia8EvtGen_A14NNPDF23LO_ttW_Np2.evgen.EVNT.e4111 		       495400.0       0.0 	    0.0 	  0.0 		 0.0 		    2743.44 	    0.1368     1.0 	  Undefined  1.32  0.180576
410070 	mc15_13TeV.410068.MadGraphPythia8EvtGen_A14NNPDF23LO_ttW_Np2.evgen.EVNT.e4111 		       496200.0       0.0 	    0.0 	  0.0 		 0.0 		    2747.87 	    0.1368     1.0 	  Undefined  1.32  0.180576
410073 	mc15_13TeV.410073.MadGraphPythia8EvtGen_A14NNPDF23LO_ttZnnqq_Np0.evgen.EVNT.e4631 	       1959000.0      0.0 	    0.0 	  0.0 		 0.0 		    7694.75 	    0.17319    1.0 	  Undefined  1.47  0.2545893
410074 	mc15_13TeV.410074.MadGraphPythia8EvtGen_A14NNPDF23LO_ttZnnqq_Np1.evgen.EVNT.e4631 	       1949000.0      0.0 	    0.0 	  0.0 		 0.0 		    8019.42 	    0.16533    1.0 	  Undefined  1.47  0.2430351
410075 	mc15_13TeV.410075.MadGraphPythia8EvtGen_A14NNPDF23LO_ttZnnqq_Np2.evgen.EVNT.e4631 	       988000.0       0.0 	    0.0 	  0.0 		 0.0 		    3887.49 	    0.17289    1.0 	  Undefined  1.47  0.2541483
410080 	mc15_13TeV.410080.MadGraphPythia8EvtGen_A14NNPDF23_4topSM.evgen.EVNT.e4111 		       198800.0       200000.0 	    200000.0 	  200000.0 	 0.0 		    21737.0 	    0.009163   1.0 	  Undefined  1.0041  0.0092009
410081 	mc15_13TeV.410081.MadGraphPythia8EvtGen_A14NNPDF23_ttbarWW.evgen.EVNT.e4111 		       50000.0 	      50000.0 	    50000.0 	  50000.0 	 0.0 		    5048.53 	    0.0080952  1.0 	  Undefined  1.2234  0.009903878
410082 	mc15_13TeV.410082.MadGraphPythia8EvtGen_A14NNPDF23LO_ttgamma_noallhad.evgen.EVNT.e4404 	       789000.0       600000.0 	    600000.0 	  600000.0 	 0.0 		    137.02 	    2.9788     1.0 	  Undefined  1.47    4.378836
410083 	mc15_13TeV.410083.MadGraphPythia8EvtGen_A14NNPDF23LO_ttgamma4080_noallhad.evgen.EVNT.e4418     198000.0       200000.0 	    200000.0 	  200000.0 	 0.0 		    160.81 	    2.9805     0.28386 	  Undefined  1.47    1.243685753
410084 	mc15_13TeV.410084.MadGraphPythia8EvtGen_A14NNPDF23LO_ttgamma80_noallhad.evgen.EVNT.e4418       199000.0       200000.0 	    200000.0 	  200000.0 	 0.0 		    404.29 	    2.9805     0.11291 	  Undefined  1.47    0.494696535
410087 	mc15_13TeV.410087.MadGraphPythia8EvtGen_A14NNPDF23LO_ttgamma_allhad.evgen.EVNT.e4404 	       398000.0       200000.0 	    200000.0 	  200000.0 	 0.0 		    61.05 	    2.2287     1.0 	  Undefined  1.47    3.276189
410088 	mc15_13TeV.410088.MadGraphPythia8EvtGen_A14NNPDF23LO_ttgamma4080_allhad.evgen.EVNT.e4423       197000.0       200000.0 	    200000.0 	  200000.0 	 0.0 		    200.88 	    2.2287     0.30389 	  Undefined  1.47    0.995601075
410089 	mc15_13TeV.410089.MadGraphPythia8EvtGen_A14NNPDF23LO_ttgamma80_allhad.evgen.EVNT.e4418 	       198000.0       200000.0 	    199000.0 	  199000.0 	 0.0 		    490.57 	    2.2287     0.12444 	  Undefined  1.47    0.407688959
410111 	mc15_13TeV.410111.MadGraphPythia8EvtGen_A14NNPDF23LO_ttee_Np0.evgen.EVNT.e4265 		       588600.0       300000.0 	    300000.0 	  300000.0 	 0.0 		    22498.78 	    0.0088305  1.0 	  Undefined  1.51    0.013334055
410112 	mc15_13TeV.410112.MadGraphPythia8EvtGen_A14NNPDF23LO_ttee_Np1.evgen.EVNT.e4265 		       590700.0       300000.0 	    300000.0 	  300000.0 	 0.0 		    13817.06 	    0.014379   1.0 	  Undefined  1.51    0.02171229
410113 	mc15_13TeV.410113.MadGraphPythia8EvtGen_A14NNPDF23LO_ttmumu_Np0.evgen.EVNT.e4265 	       395000.0       300000.0 	    300000.0 	  300000.0 	 0.0 		    22526.08 	    0.0088198  1.0 	  Undefined  1.51    0.013317898
410114 	mc15_13TeV.410114.MadGraphPythia8EvtGen_A14NNPDF23LO_ttmumu_Np1.evgen.EVNT.e4265 	       594000.0       300000.0 	    300000.0 	  300000.0 	 0.0 		    13803.62 	    0.014393   1.0 	  Undefined  1.51    0.02173343
410115 	mc15_13TeV.410115.MadGraphPythia8EvtGen_A14NNPDF23LO_tttautau_Np0.evgen.EVNT.e4265 	       592700.0       299000.0 	    300000.0 	  300000.0 	 0.0 		    21952.93 	    0.0090199  1.0 	  Undefined  1.51    0.013620049
410116 	mc15_13TeV.410116.MadGraphPythia8EvtGen_A14NNPDF23LO_tttautau_Np1.evgen.EVNT.e4265 	       591200.0       300000.0 	    300000.0 	  300000.0 	 0.0 		    13594.87 	    0.014614   1.0 	  Undefined  1.51    0.02206714
410142 	mc15_13TeV.410142.Sherpa_NNPDF30NNLO_ttll_mll5.evgen.EVNT.e4686 			       1787000.0      1800000.0     1800000.0 	  1800000.0 	 0.0 		    14597.16 	    0.11313    1.0 	  Undefined  1.09    0.1233117
410143 	mc15_13TeV.410143.Sherpa_NNPDF30NNLO_ttZnnqq.evgen.EVNT.e4686 				       4947000.0      5000000.0     5000000.0 	  5000000.0 	 0.0 		    6614.46 	    0.6872     1.0 	  Undefined  1.1     0.75592
410144 	mc15_13TeV.410144.Sherpa_NNPDF30NNLO_ttW.evgen.EVNT.e4686 				       4991000.0      4999000.0     5000000.0 	  5000000.0 	 0.0 		    8325.36 	    0.57736    1.0 	  Undefined  1.04    0.6004544
410155 	mc15_13TeV.410155.aMcAtNloPythia8EvtGen_MEN30NLO_A14N23LO_ttW.evgen.EVNT.e5070 		       14981900.0     7497000.0     7499000.0 	  7497000.0 	 0.0 		    12473.7 	    0.54838    1.0 	  Undefined  1.096   0.60102448
410156 	mc15_13TeV.410156.aMcAtNloPythia8EvtGen_MEN30NLO_A14N23LO_ttZnunu.evgen.EVNT.e5070 	       2979400.0      1500000.0     1500000.0 	  1500000.0 	 0.0 		    8724.02 	    0.1549     1.0 	  Undefined  1.11    0.171939
410157 	mc15_13TeV.410157.aMcAtNloPythia8EvtGen_MEN30NLO_A14N23LO_ttZqq.evgen.EVNT.e5070 	       5963400.0      3000000.0     3000000.0 	  3000000.0 	 0.0 		    5117.88 	    0.52809    1.0 	  Undefined  1.11    0.5861799
410184 	mc15_13TeV.410184.Sherpa_CT10_ttbb_MPIup.evgen.EVNT.e4736 				       0.0 	      0.0 	    0.0 	  0.0 		 0.0 		    0.0 	    0.31524    1.0 	  Undefined  1.0     0.31524
410185 	mc15_13TeV.410185.Sherpa_CT10_ttbb_MPIdown.evgen.EVNT.e4736 				       0.0 	      0.0 	    0.0 	  0.0 		 0.0 		    0.0 	    0.31499    1.0 	  Undefined  1.0     0.31499
410190 	mc15_13TeV.410190.MadGraphPythia8EvtGen_A14NNPDF23LO_ttZnnqq_Np0_scaleUp.evgen.EVNT.e4794      0.0 	      0.0 	    0.0 	  0.0 		 0.0 		    0.0 	    0.1732     1.0 	  Undefined  1.47    0.254604
410191 	mc15_13TeV.410191.MadGraphPythia8EvtGen_A14NNPDF23LO_ttZnnqq_Np0_scaleDn.evgen.EVNT.e4794      0.0 	      0.0 	    0.0 	  0.0 		 0.0 		    0.0 	    0.17332    1.0 	  Undefined  1.47    0.2547804
410192 	mc15_13TeV.410192.MadGraphPythia8EvtGen_A14NNPDF23LO_ttZnnqq_Np1_scaleUp.evgen.EVNT.e4794      0.0 	      0.0 	    0.0 	  0.0 		 0.0 		    0.0 	    0.16539    1.0 	  Undefined  1.47    0.2431233
410193 	mc15_13TeV.410193.MadGraphPythia8EvtGen_A14NNPDF23LO_ttZnnqq_Np1_scaleDn.evgen.EVNT.e4794      0.0 	      0.0 	    0.0 	  0.0 		 0.0 		    0.0 	    0.16524    1.0 	  Undefined  1.47    0.2429028
410194 	mc15_13TeV.410194.MadGraphPythia8EvtGen_A14NNPDF23LO_ttZnnqq_Np2_scaleUp.evgen.EVNT.e4794      0.0 	      0.0 	    0.0 	  0.0 		 0.0 		    0.0 	    0.17351    1.0 	  Undefined  1.47    0.2550597
410195 	mc15_13TeV.410195.MadGraphPythia8EvtGen_A14NNPDF23LO_ttZnnqq_Np2_scaleDn.evgen.EVNT.e4794      0.0 	      0.0 	    0.0 	  0.0 		 0.0 		    0.0 	    0.17299    1.0 	  Undefined  1.47    0.2542953
410196 	mc15_13TeV.410196.MadGraphPythia8EvtGen_A14NNPDF23LO_ttW_Np0_scaleUp.evgen.EVNT.e4799 	       0.0 	      0.0 	    0.0 	  0.0 		 0.0 		    0.0 	    0.14226    1.0 	  Undefined  1.7088  0.243093888
410197 	mc15_13TeV.410197.MadGraphPythia8EvtGen_A14NNPDF23LO_ttW_Np0_scaleDn.evgen.EVNT.e4799 	       0.0 	      0.0 	    0.0 	  0.0 		 0.0 		    0.0 	    0.22897    1.0 	  Undefined  0.9546  0.218574762
410198 	mc15_13TeV.410198.MadGraphPythia8EvtGen_A14NNPDF23LO_ttW_Np1_scaleUp.evgen.EVNT.e4799 	       0.0 	      0.0 	    0.0 	  0.0 		 0.0 		    0.0 	    0.10949    1.0 	  Undefined  1.7088  0.187096512
410199 	mc15_13TeV.410199.MadGraphPythia8EvtGen_A14NNPDF23LO_ttW_Np1_scaleDn.evgen.EVNT.e4799 	       0.0 	      0.0 	    0.0 	  0.0 		 0.0 		    0.0 	    0.1896     1.0 	  Undefined  0.9546  0.18099216
410200 	mc15_13TeV.410200.MadGraphPythia8EvtGen_A14NNPDF23LO_ttW_Np2_scaleUp.evgen.EVNT.e4799 	       0.0 	      0.0 	    0.0 	  0.0 		 0.0 		    0.0 	    0.098946   1.0 	  Undefined  1.7088  0.169078925
410201 	mc15_13TeV.410201.MadGraphPythia8EvtGen_A14NNPDF23LO_ttW_Np2_scaleDn.evgen.EVNT.e4799 	       0.0 	      0.0 	    0.0 	  0.0 		 0.0 		    0.0 	    0.20919    1.0 	  Undefined  0.9546  0.199692774
410202 	mc15_13TeV.410202.MadGraphPythia8EvtGen_A14NNPDF23LO_ttee_Np0_scaleUp.evgen.EVNT.e4796 	       0.0 	      0.0 	    0.0 	  0.0 		 0.0 		    0.0 	    0.0066789  1.0 	  Undefined  2.21    0.014760369
410203 	mc15_13TeV.410203.MadGraphPythia8EvtGen_A14NNPDF23LO_ttee_Np0_scaleDn.evgen.EVNT.e4796 	       0.0 	      0.0 	    0.0 	  0.0 		 0.0 		    0.0 	    0.015714   1.0 	  Undefined  0.95    0.0149283
410204 	mc15_13TeV.410204.MadGraphPythia8EvtGen_A14NNPDF23LO_ttee_Np1_scaleUp.evgen.EVNT.e4796 	       0.0 	      0.0 	    0.0 	  0.0 		 0.0 		    0.0 	    0.011837   1.0 	  Undefined  2.21    0.02615977
410205 	mc15_13TeV.410205.MadGraphPythia8EvtGen_A14NNPDF23LO_ttee_Np1_scaleDn.evgen.EVNT.e4796 	       0.0 	      0.0 	    0.0 	  0.0 		 0.0 		    0.0 	    0.027172   1.0 	  Undefined  0.95    0.0258134
410206 	mc15_13TeV.410206.MadGraphPythia8EvtGen_A14NNPDF23LO_ttmumu_Np0_scaleUp.evgen.EVNT.e4796       0.0 	      0.0 	    0.0 	  0.0 		 0.0 		    0.0 	    0.0066834  1.0 	  Undefined  2.21    0.014770314
410207 	mc15_13TeV.410207.MadGraphPythia8EvtGen_A14NNPDF23LO_ttmumu_Np0_scaleDn.evgen.EVNT.e4796       0.0 	      0.0 	    0.0 	  0.0 		 0.0 		    0.0 	    0.015726   1.0 	  Undefined  0.95    0.0149397
410208 	mc15_13TeV.410208.MadGraphPythia8EvtGen_A14NNPDF23LO_ttmumu_Np1_scaleUp.evgen.EVNT.e4796       0.0 	      0.0 	    0.0 	  0.0 		 0.0 		    0.0 	    0.011839   1.0 	  Undefined  2.21    0.02616419
410209 	mc15_13TeV.410209.MadGraphPythia8EvtGen_A14NNPDF23LO_ttmumu_Np1_scaleDn.evgen.EVNT.e4796       0.0 	      0.0 	    0.0 	  0.0 		 0.0 		    0.0 	    0.027179   1.0 	  Undefined  0.95    0.02582005
410210 	mc15_13TeV.410210.MadGraphPythia8EvtGen_A14NNPDF23LO_tttautau_Np0_scaleUp.evgen.EVNT.e4796     0.0 	      0.0 	    0.0 	  0.0 		 0.0 		    0.0 	    0.0068002  1.0 	  Undefined  2.21    0.015028442
410211 	mc15_13TeV.410211.MadGraphPythia8EvtGen_A14NNPDF23LO_tttautau_Np0_scaleDn.evgen.EVNT.e4796     0.0 	      0.0 	    0.0 	  0.0 		 0.0 		    0.0 	    0.016289   1.0 	  Undefined  0.95    0.01547455
410212 	mc15_13TeV.410212.MadGraphPythia8EvtGen_A14NNPDF23LO_tttautau_Np1_scaleUp.evgen.EVNT.e4796     0.0 	      0.0 	    0.0 	  0.0 		 0.0 		    0.0 	    0.012082   1.0 	  Undefined  2.21    0.02670122
410213 	mc15_13TeV.410213.MadGraphPythia8EvtGen_A14NNPDF23LO_tttautau_Np1_scaleDn.evgen.EVNT.e4796     0.0 	      0.0 	    0.0 	  0.0 		 0.0 		    0.0 	    0.027973   1.0 	  Undefined  0.95    0.02657435
410218 	mc15_13TeV.410218.aMcAtNloPythia8EvtGen_MEN30NLO_A14N23LO_ttee.evgen.EVNT.e5070 	       2802800.0      1410000.0     1337000.0 	  1337000.0 	 0.0 		    34149.7 	    0.036865   1.0 	  Undefined  1.12    0.0412888
410219 	mc15_13TeV.410219.aMcAtNloPythia8EvtGen_MEN30NLO_A14N23LO_ttmumu.evgen.EVNT.e5070 	       2810600.0      1410000.0     1339000.0 	  1339000.0 	 0.0 		    34146.92 	    0.036868   1.0 	  Undefined  1.12    0.04129216
410220 	mc15_13TeV.410220.aMcAtNloPythia8EvtGen_MEN30NLO_A14N23LO_tttautau.evgen.EVNT.e5070 	       1862300.0      935000.0 	    900000.0 	  900000.0 	 0.0 		    22862.42 	    0.036515   1.0 	  Undefined  1.12    0.0408968
410276 	mc15_13TeV.410276.aMcAtNloPythia8EvtGen_MEN30NLO_A14N23LO_ttee_mll_1_5.evgen.EVNT.e6087        692000.0       350000.0 	    350000.0 	  350000.0 	 0.0 		    17131.74 	    0.018241   1.0 	  Undefined  1.12    0.02042992
410277 	mc15_13TeV.410277.aMcAtNloPythia8EvtGen_MEN30NLO_A14N23LO_ttmumu_mll_1_5.evgen.EVNT.e6087      650000.0       350000.0 	    350000.0 	  350000.0 	 0.0 		    17132.68 	    0.01824    1.0 	  Undefined  1.12    0.0204288
410278 	mc15_13TeV.410278.aMcAtNloPythia8EvtGen_MEN30NLO_A14N23LO_tttautau_mll_1_5.evgen.EVNT.e6087    484000.0       295000.0 	    290000.0 	  0.0 		 0.0 		    134507.64 	    0.0019582  1.0 	  Undefined  1.12    0.002193184
410290 	mc15_13TeV.410290.aMcAtNloPythia8EvtGen_A14_NNPDF23_NNPDF30ME_ttee_eft_sm.evgen.EVNT.e5758     0.0 	      0.0 	    0.0 	  0.0 		 0.0 		    0.0 	    0.036298   1.0 	  Undefined  1.0     0.036298
410291 	mc15_13TeV.410291.aMcAtNloPythia8EvtGen_A14_NNPDF23_NNPDF30ME_ttee_eft_cfq3p.evgen.EVNT.e5758  98000.0 	      0.0 	    0.0 	  0.0 		 0.0 		    1771.99 	    0.055305   1.0 	  Undefined  1.0     0.055305
410292 	mc15_13TeV.410292.aMcAtNloPythia8EvtGen_A14_NNPDF23_NNPDF30ME_ttee_eft_cfq3m.evgen.EVNT.e5758  0.0 	      0.0 	    0.0 	  0.0 		 0.0 		    0.0 	    0.024413   1.0 	  Undefined  1.0     0.024413
410293 	mc15_13TeV.410293.aMcAtNloPythia8EvtGen_A14_NNPDF23_NNPDF30ME_ttee_eft_cftp.evgen.EVNT.e5758   0.0 	      0.0 	    0.0 	  0.0 		 0.0 		    0.0 	    0.049175   1.0 	  Undefined  1.0     0.049175
410294 	mc15_13TeV.410294.aMcAtNloPythia8EvtGen_A14_NNPDF23_NNPDF30ME_ttee_eft_cftm.evgen.EVNT.e5758   0.0 	      0.0 	    0.0 	  0.0 		 0.0 		    0.0 	    0.03029    1.0 	  Undefined  1.0     0.03029
410295 	mc15_13TeV.410295.aMcAtNloPythia8EvtGen_A14_NNPDF23_NNPDF30ME_ttee_eft_ctwp.evgen.EVNT.e5758   0.0 	      0.0 	    0.0 	  0.0 		 0.0 		    0.0 	    0.039146   1.0 	  Undefined  1.0     0.039146
410296 	mc15_13TeV.410296.aMcAtNloPythia8EvtGen_A14_NNPDF23_NNPDF30ME_ttee_eft_ctwm.evgen.EVNT.e5758   0.0 	      0.0 	    0.0 	  0.0 		 0.0 		    0.0 	    0.039215   1.0 	  Undefined  1.0     0.039215
410297 	mc15_13TeV.410297.aMcAtNloPythia8EvtGen_A14_NNPDF23_NNPDF30ME_ttee_eft_ctbp.evgen.EVNT.e5758   0.0 	      0.0 	    0.0 	  0.0 		 0.0 		    0.0 	    0.039115   1.0 	  Undefined  1.0     0.039115
410298 	mc15_13TeV.410298.aMcAtNloPythia8EvtGen_A14_NNPDF23_NNPDF30ME_ttee_eft_ctbm.evgen.EVNT.e5758   0.0 	      0.0 	    0.0 	  0.0 		 0.0 		    0.0 	    0.038561   1.0 	  Undefined  1.0     0.038561
410299 	mc15_13TeV.410299.aMcAtNloPythia8EvtGen_A14_NNPDF23_NNPDF30ME_ttee_eft_ctgp.evgen.EVNT.e5758   0.0 	      0.0 	    0.0 	  0.0 		 0.0 		    0.0 	    0.040559   1.0 	  Undefined  1.0     0.040559
410300 	mc15_13TeV.410300.aMcAtNloPythia8EvtGen_A14_NNPDF23_NNPDF30ME_ttee_eft_ctgm.evgen.EVNT.e5758   0.0 	      0.0 	    0.0 	  0.0 		 0.0 		    0.0 	    0.033389   1.0 	  Undefined  1.0     0.033389
410301 	mc15_13TeV.410301.aMcAtNloPythia8EvtGen_A14_NNPDF23_NNPDF30ME_ttmm_eft_sm.evgen.EVNT.e5758     0.0 	      0.0 	    0.0 	  0.0 		 0.0 		    0.0 	    0.036291   1.0 	  Undefined  1.0     0.036291
410302 	mc15_13TeV.410302.aMcAtNloPythia8EvtGen_A14_NNPDF23_NNPDF30ME_ttmm_eft_cfq3p.evgen.EVNT.e5758  100000.0       0.0 	    0.0 	  0.0 		 0.0 		    1808.55 	    0.055293   1.0 	  Undefined  1.0     0.055293
410303 	mc15_13TeV.410303.aMcAtNloPythia8EvtGen_A14_NNPDF23_NNPDF30ME_ttmm_eft_cfq3m.evgen.EVNT.e5758  0.0 	      0.0 	    0.0 	  0.0 		 0.0 		    0.0 	    0.024478   1.0 	  Undefined  1.0     0.024478
410304 	mc15_13TeV.410304.aMcAtNloPythia8EvtGen_A14_NNPDF23_NNPDF30ME_ttmm_eft_cftp.evgen.EVNT.e5758   100000.0       0.0 	    0.0 	  0.0 		 0.0 		    2015.15 	    0.049624   1.0 	  Undefined  1.0     0.049624
410305 	mc15_13TeV.410305.aMcAtNloPythia8EvtGen_A14_NNPDF23_NNPDF30ME_ttmm_eft_cftm.evgen.EVNT.e5758   0.0 	      0.0 	    0.0 	  0.0 		 0.0 		    0.0 	    0.030371   1.0 	  Undefined  1.0     0.030371
410306 	mc15_13TeV.410306.aMcAtNloPythia8EvtGen_A14_NNPDF23_NNPDF30ME_ttmm_eft_ctwp.evgen.EVNT.e5758   100000.0       0.0 	    0.0 	  0.0 		 0.0 		    2550.17 	    0.039213   1.0 	  Undefined  1.0     0.039213
410307 	mc15_13TeV.410307.aMcAtNloPythia8EvtGen_A14_NNPDF23_NNPDF30ME_ttmm_eft_ctwm.evgen.EVNT.e5758   0.0 	      0.0 	    0.0 	  0.0 		 0.0 		    0.0 	    0.039267   1.0 	  Undefined  1.0     0.039267
410308 	mc15_13TeV.410308.aMcAtNloPythia8EvtGen_A14_NNPDF23_NNPDF30ME_ttmm_eft_ctbp.evgen.EVNT.e5758   896000.0       0.0 	    0.0 	  0.0 		 0.0 		    22858.89 	    0.039197   1.0 	  Undefined  1.0     0.039197
410309 	mc15_13TeV.410309.aMcAtNloPythia8EvtGen_A14_NNPDF23_NNPDF30ME_ttmm_eft_ctbm.evgen.EVNT.e5758   100000.0       0.0 	    0.0 	  0.0 		 0.0 		    2587.32 	    0.03865    1.0 	  Undefined  1.0     0.03865
410310 	mc15_13TeV.410310.aMcAtNloPythia8EvtGen_A14_NNPDF23_NNPDF30ME_ttmm_eft_ctgp.evgen.EVNT.e5758   99000.0 	      0.0 	    0.0 	  0.0 		 0.0 		    2450.43 	    0.040401   1.0 	  Undefined  1.0     0.040401
410311 	mc15_13TeV.410311.aMcAtNloPythia8EvtGen_A14_NNPDF23_NNPDF30ME_ttmm_eft_ctgm.evgen.EVNT.e5758   0.0 	      0.0 	    0.0 	  0.0 		 0.0 		    0.0 	    0.033368   1.0 	  Undefined  1.0     0.033368
410312 	mc15_13TeV.410312.aMcAtNloPythia8EvtGen_A14_NNPDF23_NNPDF30ME_tttata_eft_sm.evgen.EVNT.e5758   0.0 	      0.0 	    0.0 	  0.0 		 0.0 		    0.0 	    0.036047   1.0 	  Undefined  1.0     0.036047
410313 	mc15_13TeV.410313.aMcAtNloPythia8EvtGen_A14_NNPDF23_NNPDF30ME_tttata_eft_cfq3p.evgen.EVNT.e5758 	      98000.0 	    0.0 	  0.0 		 0.0 		    0.0 	    1789.14    0.054775   1.0 	     Undefined  1.0  0.054775
410314 	mc15_13TeV.410314.aMcAtNloPythia8EvtGen_A14_NNPDF23_NNPDF30ME_tttata_eft_cfq3m.evgen.EVNT.e5758 	      100000.0 	    0.0 	  0.0 		 0.0 		    0.0 	    4123.03    0.024254   1.0 	     Undefined 	1.0  0.024254
410315 	mc15_13TeV.410315.aMcAtNloPythia8EvtGen_A14_NNPDF23_NNPDF30ME_tttata_eft_cftp.evgen.EVNT.e5758 		      0.0 	    0.0 	  0.0 		 0.0 		    0.0 	    0.0        0.049289   1.0 	     Undefined 	1.0  0.049289
410316 	mc15_13TeV.410316.aMcAtNloPythia8EvtGen_A14_NNPDF23_NNPDF30ME_tttata_eft_cftm.evgen.EVNT.e5758 		      0.0 	    0.0 	  0.0 		 0.0 		    0.0 	    0.0        0.030009   1.0 	     Undefined 	1.0  0.030009
410317 	mc15_13TeV.410317.aMcAtNloPythia8EvtGen_A14_NNPDF23_NNPDF30ME_tttata_eft_ctwp.evgen.EVNT.e5758 		      0.0 	    0.0 	  0.0 		 0.0 		    0.0 	    0.0        0.039052   1.0 	     Undefined 	1.0  0.039052
410318 	mc15_13TeV.410318.aMcAtNloPythia8EvtGen_A14_NNPDF23_NNPDF30ME_tttata_eft_ctwm.evgen.EVNT.e5758 		      0.0 	    0.0 	  0.0 		 0.0 		    0.0 	    0.0        0.039083   1.0 	     Undefined 	1.0  0.039083
410319 	mc15_13TeV.410319.aMcAtNloPythia8EvtGen_A14_NNPDF23_NNPDF30ME_tttata_eft_ctbp.evgen.EVNT.e5758 		      0.0 	    0.0 	  0.0 		 0.0 		    0.0 	    0.0        0.038892   1.0 	     Undefined 	1.0  0.038892
410320 	mc15_13TeV.410320.aMcAtNloPythia8EvtGen_A14_NNPDF23_NNPDF30ME_tttata_eft_ctbm.evgen.EVNT.e5758 		      0.0 	    0.0 	  0.0 		 0.0 		    0.0 	    0.0        0.038533   1.0 	     Undefined 	1.0  0.038533
410321 	mc15_13TeV.410321.aMcAtNloPythia8EvtGen_A14_NNPDF23_NNPDF30ME_tttata_eft_ctgp.evgen.EVNT.e5758 		      0.0 	    0.0 	  0.0 		 0.0 		    0.0 	    0.0        0.040405   1.0 	     Undefined 	1.0  0.040405
410322 	mc15_13TeV.410322.aMcAtNloPythia8EvtGen_A14_NNPDF23_NNPDF30ME_tttata_eft_ctgm.evgen.EVNT.e5758 		      0.0 	    0.0 	  0.0 		 0.0 		    0.0 	    0.0        0.03317 	  1.0 	     Undefined 	1.0  0.03317
410370 	mc15_13TeV.410370.aMcAtNloPythia8EvtGen_MEN30NLO_A14Var3UpN23LO_ttee.evgen.EVNT.e6113 			      467000.0 	    470000.0 	  0.0 		 575000.0 	    0.0 	    12728.5    0.036925   1.0 	     Undefined 	1.0  0.036925
410371 	mc15_13TeV.410371.aMcAtNloPythia8EvtGen_MEN30NLO_A14Var3DownN23LO_ttee.evgen.EVNT.e6113 		      467000.0 	    470000.0 	  0.0 		 570000.0 	    0.0 	    12726.09   0.036932   1.0 	     Undefined 	1.0  0.036932
410372 	mc15_13TeV.410372.aMcAtNloPythia8EvtGen_MEN30NLO_A14Var3UpN23LO_ttmumu.evgen.EVNT.e6125 		      467000.0 	    470000.0 	  0.0 		 570000.0 	    0.0 	    12727.47   0.036928   1.0 	     Undefined 	1.0  0.036928
410373 	mc15_13TeV.410373.aMcAtNloPythia8EvtGen_MEN30NLO_A14Var3DownN23LO_ttmumu.evgen.EVNT.e6113 		      467000.0 	    470000.0 	  0.0 		 575000.0 	    0.0 	    12728.85   0.036924   1.0 	     Undefined 	1.0  0.036924
410374 	mc15_13TeV.410374.aMcAtNloPythia8EvtGen_MEN30NLO_A14Var3UpN23LO_tttautau.evgen.EVNT.e6113 		      468000.0 	    470000.0 	  0.0 		 570000.0 	    0.0 	    12852.77   0.036568   1.0 	     Undefined 	1.0  0.036568
410375 	mc15_13TeV.410375.aMcAtNloPythia8EvtGen_MEN30NLO_A14Var3DownN23LO_tttautau.evgen.EVNT.e6113 		      470000.0 	    470000.0 	  0.0 		 575000.0 	    0.0 	    12852.77   0.036568   1.0 	     Undefined 	1.0  0.036568
410376 	mc15_13TeV.410376.aMcAtNloPythia8EvtGen_MEN30NLO_A14Var3UpN23LO_ttW.evgen.EVNT.e6113 			      2476000.0     2500000.0 	  0.0 		 3150000.0 	    0.0 	    4560.05    0.54824 	  1.0 	     Undefined 	1.0  0.54824
410377 	mc15_13TeV.410377.aMcAtNloPythia8EvtGen_MEN30NLO_A14Var3DownN23LO_ttW.evgen.EVNT.e6113 			      2478000.0     2495000.0 	  0.0 		 3149000.0 	    0.0 	    4551.09    0.54822 	  1.0 	     Undefined 	1.0  0.54822
410378 	mc15_13TeV.410378.aMcAtNloPythia8EvtGen_MEN30NLO_A14Var3UpN23LO_ttZnunu.evgen.EVNT.e5806 		      0.0 	    0.0 	  0.0 		 0.0 		    0.0 	    0.0        0.15519 	  1.0 	     Undefined 	1.0  0.15519
410379 	mc15_13TeV.410379.aMcAtNloPythia8EvtGen_MEN30NLO_A14Var3DownN23LO_ttZnunu.evgen.EVNT.e5806 		      0.0 	    0.0 	  0.0 		 0.0 		    0.0 	    0.0        0.15518 	  1.0 	     Undefined 	1.0  0.15518
410380 	mc15_13TeV.410380.aMcAtNloPythia8EvtGen_MEN30NLO_A14Var3UpN23LO_ttZqq.evgen.EVNT.e5806 			      0.0 	    0.0 	  0.0 		 0.0 		    0.0 	    0.0        0.52866 	  1.0 	     Undefined 	1.0  0.52866
410381 	mc15_13TeV.410381.aMcAtNloPythia8EvtGen_MEN30NLO_A14Var3DownN23LO_ttZqq.evgen.EVNT.e5806 		      0.0 	    0.0 	  0.0 		 0.0 		    0.0 	    0.0        0.52867 	  1.0 	     Undefined 	1.0  0.52867
410382 	mc15_13TeV.410382.aMcAtNloPythia8EvtGen_A14_NNPDF23_NNPDF30ME_ttgamma_eft_sm.evgen.EVNT.e6258 		      0.0 	    0.0 	  0.0 		 0.0 		    0.0 	    0.0        2.6755 	  0.50916    Undefined 	1.0  1.36225758
410383 	mc15_13TeV.410383.aMcAtNloPythia8EvtGen_A14_NNPDF23_NNPDF30ME_ttgamma_eft_ctbm.evgen.EVNT.e6258 	      0.0 	    0.0 	  0.0 		 0.0 		    0.0 	    0.0        2.8078 	  0.50786    Undefined 	1.0  1.425969308
410384 	mc15_13TeV.410384.aMcAtNloPythia8EvtGen_A14_NNPDF23_NNPDF30ME_ttgamma_eft_ctbp.evgen.EVNT.e6258 	      0.0 	    0.0 	  0.0 		 0.0 		    0.0 	    0.0        2.99 	  0.50894    Undefined 	1.0  1.5217306
410385 	mc15_13TeV.410385.aMcAtNloPythia8EvtGen_A14_NNPDF23_NNPDF30ME_ttgamma_eft_ctgm.evgen.EVNT.e6258 	      0.0 	    0.0 	  0.0 		 0.0 		    0.0 	    0.0        2.4627 	  0.50866    Undefined 	1.0  1.252676982
410386 	mc15_13TeV.410386.aMcAtNloPythia8EvtGen_A14_NNPDF23_NNPDF30ME_ttgamma_eft_ctgp.evgen.EVNT.e6258 	      0.0 	    0.0 	  0.0 		 0.0 		    0.0 	    0.0        2.9127 	  0.50853    Undefined 	1.0  1.481195331
410387 	mc15_13TeV.410387.aMcAtNloPythia8EvtGen_A14_NNPDF23_NNPDF30ME_ttgamma_eft_ctwm.evgen.EVNT.e6258 	      0.0 	    0.0 	  0.0 		 0.0 		    0.0 	    0.0        2.6778 	  0.50842    Undefined 	1.0  1.361447076
410388 	mc15_13TeV.410388.aMcAtNloPythia8EvtGen_A14_NNPDF23_NNPDF30ME_ttgamma_eft_ctwp.evgen.EVNT.e6258 	      0.0 	    0.0 	  0.0 		 0.0 		    0.0 	    0.0        2.754 	  0.50868    Undefined 	1.0  1.40090472
410389 	mc15_13TeV.410389.MadGraphPythia8EvtGen_A14NNPDF23_ttgamma_nonallhadronic.evgen.EVNT.e6155 		      4926000.0     14998000.0 	  6250000.0 	 12481000.0 	    0.0 	    2796.13    4.624 	  1.0 	     Undefined 	1.16  5.36384
410394 	mc15_13TeV.410394.MadGraphPythia8EvtGen_A14NNPDF23_ttgamma_allhadronic.evgen.EVNT.e6309 		      968000.0 	    0.0 	  0.0 		 0.0 		    0.0 	    266.82     3.6279 	  1.0 	     Undefined 	1.0   3.6279
410395 	mc15_13TeV.410395.MGH7EG_H7UE_ttgamma_nonallhadronic.evgen.EVNT.e6416 					      4804000.0     0.0 	  0.0 		 0.0 		    0.0 	    1039.11    4.6232 	  1.0 	     Undefined 	1.0   4.6232
410396 	mc15_13TeV.410396.MGH7EG_H7UE_ttgamma_allhadronic.evgen.EVNT.e6472 					      963000.0 	    0.0 	  0.0 		 0.0 		    0.0 	    265.44     3.6279 	  1.0 	     Undefined 	1.0   3.6279
410404 	mc15_13TeV.410404.MadGraphPythia8EvtGen_A14NNPDF23Var3cUp_ttgamma_nonallhad.evgen.EVNT.e6350 		      4899000.0     0.0 	  0.0 		 0.0 		    0.0 	    1059.63    4.6233 	  1.0 	     Undefined 	1.0   4.6233
410405 	mc15_13TeV.410405.MadGraphPythia8EvtGen_A14NNPDF23Var3cDown_ttgamma_nonallhad.evgen.EVNT.e6350 		      4927000.0     0.0 	  0.0 		 0.0 		    0.0 	    1065.69    4.6233 	  1.0 	     Undefined 	1.0   4.6233
410410 	mc15_13TeV.410410.MadGraphPythia8EvtGen_A14NNPDF23Var3cUp_ttgamma_allhad.evgen.EVNT.e6471 		      968000.0 	    0.0 	  0.0 		 0.0 		    0.0 	    266.82     3.6279 	  1.0 	     Undefined 	1.0   3.6279
410411 	mc15_13TeV.410411.MadGraphPythia8EvtGen_A14NNPDF23Var3cDown_ttgamma_allhad.evgen.EVNT.e6471 		      968000.0 	    0.0 	  0.0 		 0.0 		    0.0 	    266.82     3.6279 	  1.0 	     Undefined 	1.0   3.6279 
